%YAML 1.1
%TAG !u! tag:unity3d.com,2011:
--- !u!74 &7400000
AnimationClip:
  m_ObjectHideFlags: 0
  m_PrefabParentObject: {fileID: 0}
  m_PrefabInternal: {fileID: 0}
  m_Name: stand_mentori
  serializedVersion: 6
  m_Legacy: 0
  m_Compressed: 0
  m_UseHighQualityCurve: 1
  m_RotationCurves: []
  m_CompressedRotationCurves: []
  m_EulerCurves: []
  m_PositionCurves: []
  m_ScaleCurves: []
  m_FloatCurves:
  - curve:
      serializedVersion: 2
      m_Curve:
      - time: 0
        value: 219
        inSlope: 0
        outSlope: 0
        tangentMode: 10
      - time: 0.1
        value: 219
        inSlope: 0
        outSlope: 0
        tangentMode: 10
      - time: 0.2
        value: 219
        inSlope: 0
        outSlope: 0
        tangentMode: 10
      - time: 0.3
        value: 219
        inSlope: 0
        outSlope: 0
        tangentMode: 10
      m_PreInfinity: 2
      m_PostInfinity: 2
      m_RotationOrder: 4
    attribute: m_AnchoredPosition.x
    path: 
    classID: 224
    script: {fileID: 0}
  - curve:
      serializedVersion: 2
      m_Curve:
      - time: 0
        value: 55
        inSlope: 350
        outSlope: 350
        tangentMode: 10
      - time: 0.1
        value: 90
        inSlope: 0
        outSlope: 0
        tangentMode: 10
      - time: 0.2
        value: 55
        inSlope: -350
        outSlope: -350
        tangentMode: 10
      m_PreInfinity: 2
      m_PostInfinity: 2
      m_RotationOrder: 4
    attribute: m_AnchoredPosition.y
    path: 
    classID: 224
    script: {fileID: 0}
  m_PPtrCurves:
  - curve:
    - time: 0
      value: {fileID: 21300000, guid: eb6bf3a810b8d304fb48fe592b35f8c7, type: 3}
    - time: 0.1
      value: {fileID: 21300000, guid: 86131e49566364f4ebcd6a265009fb12, type: 3}
    - time: 0.2
      value: {fileID: 21300000, guid: 0100e30d77111d0418ab7a357d14cccc, type: 3}
    - time: 0.3
      value: {fileID: 21300000, guid: eb6bf3a810b8d304fb48fe592b35f8c7, type: 3}
    attribute: m_Sprite
    path: 
    classID: 114
    script: {fileID: -765806418, guid: f5f67c52d1564df4a8936ccd202a3bd8, type: 3}
  m_SampleRate: 30
  m_WrapMode: 0
  m_Bounds:
    m_Center: {x: 0, y: 0, z: 0}
    m_Extent: {x: 0, y: 0, z: 0}
  m_ClipBindingConstant:
    genericBindings:
    - path: 0
      attribute: 538195251
      script: {fileID: 0}
      classID: 224
      customType: 0
      isPPtrCurve: 0
    - path: 0
      attribute: 2015549526
      script: {fileID: -765806418, guid: f5f67c52d1564df4a8936ccd202a3bd8, type: 3}
      classID: 114
      customType: 0
      isPPtrCurve: 1
    - path: 0
      attribute: 1460864421
      script: {fileID: 0}
      classID: 224
      customType: 0
      isPPtrCurve: 0
    pptrCurveMapping:
    - {fileID: 21300000, guid: eb6bf3a810b8d304fb48fe592b35f8c7, type: 3}
    - {fileID: 21300000, guid: 86131e49566364f4ebcd6a265009fb12, type: 3}
    - {fileID: 21300000, guid: 0100e30d77111d0418ab7a357d14cccc, type: 3}
    - {fileID: 21300000, guid: eb6bf3a810b8d304fb48fe592b35f8c7, type: 3}
  m_AnimationClipSettings:
    serializedVersion: 2
    m_AdditiveReferencePoseClip: {fileID: 0}
    m_AdditiveReferencePoseTime: 0
    m_StartTime: 0
    m_StopTime: 0.33333334
    m_OrientationOffsetY: 0
    m_Level: 0
    m_CycleOffset: 0
    m_HasAdditiveReferencePose: 0
    m_LoopTime: 1
    m_LoopBlend: 0
    m_LoopBlendOrientation: 0
    m_LoopBlendPositionY: 0
    m_LoopBlendPositionXZ: 0
    m_KeepOriginalOrientation: 0
    m_KeepOriginalPositionY: 1
    m_KeepOriginalPositionXZ: 0
    m_HeightFromFeet: 0
    m_Mirror: 0
  m_EditorCurves:
  - curve:
      serializedVersion: 2
      m_Curve:
      - time: 0
        value: 219
        inSlope: 0
        outSlope: 0
        tangentMode: 10
      - time: 0.1
        value: 219
        inSlope: 0
        outSlope: 0
        tangentMode: 10
      - time: 0.2
        value: 219
        inSlope: 0
        outSlope: 0
        tangentMode: 10
      - time: 0.3
        value: 219
        inSlope: 0
        outSlope: 0
        tangentMode: 10
      m_PreInfinity: 2
      m_PostInfinity: 2
      m_RotationOrder: 4
    attribute: m_AnchoredPosition.x
    path: 
    classID: 224
    script: {fileID: 0}
  - curve:
      serializedVersion: 2
      m_Curve:
      - time: 0
        value: 55
        inSlope: 350
        outSlope: 350
        tangentMode: 10
      - time: 0.1
        value: 90
        inSlope: 0
        outSlope: 0
        tangentMode: 10
      - time: 0.2
        value: 55
        inSlope: -350
        outSlope: -350
        tangentMode: 10
      m_PreInfinity: 2
      m_PostInfinity: 2
      m_RotationOrder: 4
    attribute: m_AnchoredPosition.y
    path: 
    classID: 224
    script: {fileID: 0}
  m_EulerEditorCurves: []
  m_HasGenericRootTransform: 0
  m_HasMotionFloatCurves: 0
  m_GenerateMotionCurves: 0
  m_Events: []
